^C:\USERS\FILOU\DOCUMENTS\VISUAL STUDIO 2015\PROJECTS\TRABALHOFINAL\TRABALHOFINAL\DEBUG\.NETFRAMEWORK,VERSION=V4.5.2.ASSEMBLYATTRIBUTES.OBJ|C:\USERS\FILOU\DOCUMENTS\VISUAL STUDIO 2015\PROJECTS\TRABALHOFINAL\TRABALHOFINAL\DEBUG\ABOUT.OBJ|C:\USERS\FILOU\DOCUMENTS\VISUAL STUDIO 2015\PROJECTS\TRABALHOFINAL\TRABALHOFINAL\DEBUG\ADICIONARALUNO.OBJ|C:\USERS\FILOU\DOCUMENTS\VISUAL STUDIO 2015\PROJECTS\TRABALHOFINAL\TRABALHOFINAL\DEBUG\ADICIONARCURSOS.OBJ|C:\USERS\FILOU\DOCUMENTS\VISUAL STUDIO 2015\PROJECTS\TRABALHOFINAL\TRABALHOFINAL\DEBUG\ADICIONARDEPARTAMENTO.OBJ|C:\USERS\FILOU\DOCUMENTS\VISUAL STUDIO 2015\PROJECTS\TRABALHOFINAL\TRABALHOFINAL\DEBUG\ADICIONARDISCIPLINA.OBJ|C:\USERS\FILOU\DOCUMENTS\VISUAL STUDIO 2015\PROJECTS\TRABALHOFINAL\TRABALHOFINAL\DEBUG\ADICIONARDOCENTE.OBJ|C:\USERS\FILOU\DOCUMENTS\VISUAL STUDIO 2015\PROJECTS\TRABALHOFINAL\TRABALHOFINAL\DEBUG\ADICIONARESCOLA.OBJ|C:\USERS\FILOU\DOCUMENTS\VISUAL STUDIO 2015\PROJECTS\TRABALHOFINAL\TRABALHOFINAL\DEBUG\ADICIONARUNIVERSIDADE.OBJ|C:\USERS\FILOU\DOCUMENTS\VISUAL STUDIO 2015\PROJECTS\TRABALHOFINAL\TRABALHOFINAL\DEBUG\ALUNOS.OBJ|C:\USERS\FILOU\DOCUMENTS\VISUAL STUDIO 2015\PROJECTS\TRABALHOFINAL\TRABALHOFINAL\DEBUG\APAGARALUNOS.OBJ|C:\USERS\FILOU\DOCUMENTS\VISUAL STUDIO 2015\PROJECTS\TRABALHOFINAL\TRABALHOFINAL\DEBUG\APAGARUNIVERSIDADE.OBJ|C:\USERS\FILOU\DOCUMENTS\VISUAL STUDIO 2015\PROJECTS\TRABALHOFINAL\TRABALHOFINAL\DEBUG\CURSOS.OBJ|C:\USERS\FILOU\DOCUMENTS\VISUAL STUDIO 2015\PROJECTS\TRABALHOFINAL\TRABALHOFINAL\DEBUG\DEPARTAMENTO.OBJ|C:\USERS\FILOU\DOCUMENTS\VISUAL STUDIO 2015\PROJECTS\TRABALHOFINAL\TRABALHOFINAL\DEBUG\DISCIPLINA.OBJ|C:\USERS\FILOU\DOCUMENTS\VISUAL STUDIO 2015\PROJECTS\TRABALHOFINAL\TRABALHOFINAL\DEBUG\DOCENTE.OBJ|C:\USERS\FILOU\DOCUMENTS\VISUAL STUDIO 2015\PROJECTS\TRABALHOFINAL\TRABALHOFINAL\DEBUG\ENTIDADE.OBJ|C:\USERS\FILOU\DOCUMENTS\VISUAL STUDIO 2015\PROJECTS\TRABALHOFINAL\TRABALHOFINAL\DEBUG\ESCOLA.OBJ|C:\USERS\FILOU\DOCUMENTS\VISUAL STUDIO 2015\PROJECTS\TRABALHOFINAL\TRABALHOFINAL\DEBUG\FRMAUXILIAR.OBJ|C:\USERS\FILOU\DOCUMENTS\VISUAL STUDIO 2015\PROJECTS\TRABALHOFINAL\TRABALHOFINAL\DEBUG\LISTARALUNOS.OBJ|C:\USERS\FILOU\DOCUMENTS\VISUAL STUDIO 2015\PROJECTS\TRABALHOFINAL\TRABALHOFINAL\DEBUG\LISTARCURSOS.OBJ|C:\USERS\FILOU\DOCUMENTS\VISUAL STUDIO 2015\PROJECTS\TRABALHOFINAL\TRABALHOFINAL\DEBUG\LISTARDEPARTAMENTO.OBJ|C:\USERS\FILOU\DOCUMENTS\VISUAL STUDIO 2015\PROJECTS\TRABALHOFINAL\TRABALHOFINAL\DEBUG\LISTARDISCIPLINA.OBJ|C:\USERS\FILOU\DOCUMENTS\VISUAL STUDIO 2015\PROJECTS\TRABALHOFINAL\TRABALHOFINAL\DEBUG\LISTARESCOLAS.OBJ|C:\USERS\FILOU\DOCUMENTS\VISUAL STUDIO 2015\PROJECTS\TRABALHOFINAL\TRABALHOFINAL\DEBUG\LISTARUNIVERSIDADES.OBJ|C:\USERS\FILOU\DOCUMENTS\VISUAL STUDIO 2015\PROJECTS\TRABALHOFINAL\TRABALHOFINAL\DEBUG\MANUTENCAO.OBJ|C:\USERS\FILOU\DOCUMENTS\VISUAL STUDIO 2015\PROJECTS\TRABALHOFINAL\TRABALHOFINAL\DEBUG\MYFORM.OBJ|C:\USERS\FILOU\DOCUMENTS\VISUAL STUDIO 2015\PROJECTS\TRABALHOFINAL\TRABALHOFINAL\DEBUG\MYFORM1.OBJ|C:\USERS\FILOU\DOCUMENTS\VISUAL STUDIO 2015\PROJECTS\TRABALHOFINAL\TRABALHOFINAL\DEBUG\MYFORM2.OBJ|C:\USERS\FILOU\DOCUMENTS\VISUAL STUDIO 2015\PROJECTS\TRABALHOFINAL\TRABALHOFINAL\DEBUG\PESSOAS.OBJ|C:\USERS\FILOU\DOCUMENTS\VISUAL STUDIO 2015\PROJECTS\TRABALHOFINAL\TRABALHOFINAL\DEBUG\UNIVERSIDADE.OBJ
C:\USERS\FILOU\DOCUMENTS\VISUAL STUDIO 2015\PROJECTS\TRABALHOFINAL\DEBUG\TRABALHOFINAL.EXE
C:\USERS\FILOU\DOCUMENTS\VISUAL STUDIO 2015\PROJECTS\TRABALHOFINAL\DEBUG\TRABALHOFINAL.PDB
