^C:\USERS\FILOU\DOCUMENTS\VISUAL STUDIO 2015\PROJECTS\TRABALHOFINAL\TRABALHOFINAL\DEBUG\.NETFRAMEWORK,VERSION=V4.5.2.ASSEMBLYATTRIBUTES.OBJ|C:\USERS\FILOU\DOCUMENTS\VISUAL STUDIO 2015\PROJECTS\TRABALHOFINAL\TRABALHOFINAL\DEBUG\ABOUT.OBJ|C:\USERS\FILOU\DOCUMENTS\VISUAL STUDIO 2015\PROJECTS\TRABALHOFINAL\TRABALHOFINAL\DEBUG\ADICIONARALUNO.OBJ|C:\USERS\FILOU\DOCUMENTS\VISUAL STUDIO 2015\PROJECTS\TRABALHOFINAL\TRABALHOFINAL\DEBUG\ADICIONARCURSOS.OBJ|C:\USERS\FILOU\DOCUMENTS\VISUAL STUDIO 2015\PROJECTS\TRABALHOFINAL\TRABALHOFINAL\DEBUG\ADICIONARDEPARTAMENTO.OBJ|C:\USERS\FILOU\DOCUMENTS\VISUAL STUDIO 2015\PROJECTS\TRABALHOFINAL\TRABALHOFINAL\DEBUG\ADICIONARDISCIPLINA.OBJ|C:\USERS\FILOU\DOCUMENTS\VISUAL STUDIO 2015\PROJECTS\TRABALHOFINAL\TRABALHOFINAL\DEBUG\ADICIONARDOCENTE.OBJ|C:\USERS\FILOU\DOCUMENTS\VISUAL STUDIO 2015\PROJECTS\TRABALHOFINAL\TRABALHOFINAL\DEBUG\ADICIONARESCOLA.OBJ|C:\USERS\FILOU\DOCUMENTS\VISUAL STUDIO 2015\PROJECTS\TRABALHOFINAL\TRABALHOFINAL\DEBUG\ADICIONARUNIVERSIDADE.OBJ|C:\USERS\FILOU\DOCUMENTS\VISUAL STUDIO 2015\PROJECTS\TRABALHOFINAL\TRABALHOFINAL\DEBUG\ALUNOS.OBJ|C:\USERS\FILOU\DOCUMENTS\VISUAL STUDIO 2015\PROJECTS\TRABALHOFINAL\TRABALHOFINAL\DEBUG\APAGARALUNOS.OBJ|C:\USERS\FILOU\DOCUMENTS\VISUAL STUDIO 2015\PROJECTS\TRABALHOFINAL\TRABALHOFINAL\DEBUG\APAGARUNIVERSIDADE.OBJ|C:\USERS\FILOU\DOCUMENTS\VISUAL STUDIO 2015\PROJECTS\TRABALHOFINAL\TRABALHOFINAL\DEBUG\CURSOS.OBJ|C:\USERS\FILOU\DOCUMENTS\VISUAL STUDIO 2015\PROJECTS\TRABALHOFINAL\TRABALHOFINAL\DEBUG\DEPARTAMENTO.OBJ|C:\USERS\FILOU\DOCUMENTS\VISUAL STUDIO 2015\PROJECTS\TRABALHOFINAL\TRABALHOFINAL\DEBUG\DISCIPLINA.OBJ|C:\USERS\FILOU\DOCUMENTS\VISUAL STUDIO 2015\PROJECTS\TRABALHOFINAL\TRABALHOFINAL\DEBUG\DOCENTE.OBJ|C:\USERS\FILOU\DOCUMENTS\VISUAL STUDIO 2015\PROJECTS\TRABALHOFINAL\TRABALHOFINAL\DEBUG\ENTIDADE.OBJ|C:\USERS\FILOU\DOCUMENTS\VISUAL STUDIO 2015\PROJECTS\TRABALHOFINAL\TRABALHOFINAL\DEBUG\ESCOLA.OBJ|C:\USERS\FILOU\DOCUMENTS\VISUAL STUDIO 2015\PROJECTS\TRABALHOFINAL\TRABALHOFINAL\DEBUG\FRMAUXILIAR.OBJ|C:\USERS\FILOU\DOCUMENTS\VISUAL STUDIO 2015\PROJECTS\TRABALHOFINAL\TRABALHOFINAL\DEBUG\LISTARALUNOS.OBJ|C:\USERS\FILOU\DOCUMENTS\VISUAL STUDIO 2015\PROJECTS\TRABALHOFINAL\TRABALHOFINAL\DEBUG\LISTARCURSOS.OBJ|C:\USERS\FILOU\DOCUMENTS\VISUAL STUDIO 2015\PROJECTS\TRABALHOFINAL\TRABALHOFINAL\DEBUG\LISTARDEPARTAMENTO.OBJ|C:\USERS\FILOU\DOCUMENTS\VISUAL STUDIO 2015\PROJECTS\TRABALHOFINAL\TRABALHOFINAL\DEBUG\LISTARDISCIPLINA.OBJ|C:\USERS\FILOU\DOCUMENTS\VISUAL STUDIO 2015\PROJECTS\TRABALHOFINAL\TRABALHOFINAL\DEBUG\LISTARESCOLAS.OBJ|C:\USERS\FILOU\DOCUMENTS\VISUAL STUDIO 2015\PROJECTS\TRABALHOFINAL\TRABALHOFINAL\DEBUG\LISTARUNIVERSIDADES.OBJ|C:\USERS\FILOU\DOCUMENTS\VISUAL STUDIO 2015\PROJECTS\TRABALHOFINAL\TRABALHOFINAL\DEBUG\MANUTENCAO.OBJ|C:\USERS\FILOU\DOCUMENTS\VISUAL STUDIO 2015\PROJECTS\TRABALHOFINAL\TRABALHOFINAL\DEBUG\MYFORM.OBJ|C:\USERS\FILOU\DOCUMENTS\VISUAL STUDIO 2015\PROJECTS\TRABALHOFINAL\TRABALHOFINAL\DEBUG\MYFORM1.OBJ|C:\USERS\FILOU\DOCUMENTS\VISUAL STUDIO 2015\PROJECTS\TRABALHOFINAL\TRABALHOFINAL\DEBUG\MYFORM2.OBJ|C:\USERS\FILOU\DOCUMENTS\VISUAL STUDIO 2015\PROJECTS\TRABALHOFINAL\TRABALHOFINAL\DEBUG\PESSOAS.OBJ|C:\USERS\FILOU\DOCUMENTS\VISUAL STUDIO 2015\PROJECTS\TRABALHOFINAL\TRABALHOFINAL\DEBUG\UNIVERSIDADE.OBJ
C:\WINDOWS\GLOBALIZATION\SORTING\SORTDEFAULT.NLS
C:\USERS\FILOU\DOCUMENTS\VISUAL STUDIO 2015\PROJECTS\TRABALHOFINAL\TRABALHOFINAL\DEBUG\ABOUT.OBJ
C:\USERS\FILOU\DOCUMENTS\VISUAL STUDIO 2015\PROJECTS\TRABALHOFINAL\TRABALHOFINAL\DEBUG\ADICIONARALUNO.OBJ
C:\USERS\FILOU\DOCUMENTS\VISUAL STUDIO 2015\PROJECTS\TRABALHOFINAL\TRABALHOFINAL\DEBUG\ADICIONARCURSOS.OBJ
C:\USERS\FILOU\DOCUMENTS\VISUAL STUDIO 2015\PROJECTS\TRABALHOFINAL\TRABALHOFINAL\DEBUG\ADICIONARDEPARTAMENTO.OBJ
C:\USERS\FILOU\DOCUMENTS\VISUAL STUDIO 2015\PROJECTS\TRABALHOFINAL\TRABALHOFINAL\DEBUG\ADICIONARDISCIPLINA.OBJ
C:\USERS\FILOU\DOCUMENTS\VISUAL STUDIO 2015\PROJECTS\TRABALHOFINAL\TRABALHOFINAL\DEBUG\ADICIONARDOCENTE.OBJ
C:\USERS\FILOU\DOCUMENTS\VISUAL STUDIO 2015\PROJECTS\TRABALHOFINAL\TRABALHOFINAL\DEBUG\ADICIONARESCOLA.OBJ
C:\USERS\FILOU\DOCUMENTS\VISUAL STUDIO 2015\PROJECTS\TRABALHOFINAL\TRABALHOFINAL\DEBUG\ADICIONARUNIVERSIDADE.OBJ
C:\USERS\FILOU\DOCUMENTS\VISUAL STUDIO 2015\PROJECTS\TRABALHOFINAL\TRABALHOFINAL\DEBUG\ALUNOS.OBJ
C:\USERS\FILOU\DOCUMENTS\VISUAL STUDIO 2015\PROJECTS\TRABALHOFINAL\TRABALHOFINAL\DEBUG\APAGARALUNOS.OBJ
C:\USERS\FILOU\DOCUMENTS\VISUAL STUDIO 2015\PROJECTS\TRABALHOFINAL\TRABALHOFINAL\DEBUG\APAGARUNIVERSIDADE.OBJ
C:\USERS\FILOU\DOCUMENTS\VISUAL STUDIO 2015\PROJECTS\TRABALHOFINAL\TRABALHOFINAL\DEBUG\CURSOS.OBJ
C:\USERS\FILOU\DOCUMENTS\VISUAL STUDIO 2015\PROJECTS\TRABALHOFINAL\TRABALHOFINAL\DEBUG\DEPARTAMENTO.OBJ
C:\USERS\FILOU\DOCUMENTS\VISUAL STUDIO 2015\PROJECTS\TRABALHOFINAL\TRABALHOFINAL\DEBUG\DISCIPLINA.OBJ
C:\USERS\FILOU\DOCUMENTS\VISUAL STUDIO 2015\PROJECTS\TRABALHOFINAL\TRABALHOFINAL\DEBUG\DOCENTE.OBJ
C:\USERS\FILOU\DOCUMENTS\VISUAL STUDIO 2015\PROJECTS\TRABALHOFINAL\TRABALHOFINAL\DEBUG\ENTIDADE.OBJ
C:\USERS\FILOU\DOCUMENTS\VISUAL STUDIO 2015\PROJECTS\TRABALHOFINAL\TRABALHOFINAL\DEBUG\ESCOLA.OBJ
C:\USERS\FILOU\DOCUMENTS\VISUAL STUDIO 2015\PROJECTS\TRABALHOFINAL\TRABALHOFINAL\DEBUG\FRMAUXILIAR.OBJ
C:\USERS\FILOU\DOCUMENTS\VISUAL STUDIO 2015\PROJECTS\TRABALHOFINAL\TRABALHOFINAL\DEBUG\LISTARALUNOS.OBJ
C:\USERS\FILOU\DOCUMENTS\VISUAL STUDIO 2015\PROJECTS\TRABALHOFINAL\TRABALHOFINAL\DEBUG\LISTARCURSOS.OBJ
C:\USERS\FILOU\DOCUMENTS\VISUAL STUDIO 2015\PROJECTS\TRABALHOFINAL\TRABALHOFINAL\DEBUG\LISTARDEPARTAMENTO.OBJ
C:\USERS\FILOU\DOCUMENTS\VISUAL STUDIO 2015\PROJECTS\TRABALHOFINAL\TRABALHOFINAL\DEBUG\LISTARDISCIPLINA.OBJ
C:\USERS\FILOU\DOCUMENTS\VISUAL STUDIO 2015\PROJECTS\TRABALHOFINAL\TRABALHOFINAL\DEBUG\LISTARESCOLAS.OBJ
C:\USERS\FILOU\DOCUMENTS\VISUAL STUDIO 2015\PROJECTS\TRABALHOFINAL\TRABALHOFINAL\DEBUG\LISTARUNIVERSIDADES.OBJ
C:\USERS\FILOU\DOCUMENTS\VISUAL STUDIO 2015\PROJECTS\TRABALHOFINAL\TRABALHOFINAL\DEBUG\MANUTENCAO.OBJ
C:\USERS\FILOU\DOCUMENTS\VISUAL STUDIO 2015\PROJECTS\TRABALHOFINAL\TRABALHOFINAL\DEBUG\MYFORM.OBJ
C:\USERS\FILOU\DOCUMENTS\VISUAL STUDIO 2015\PROJECTS\TRABALHOFINAL\TRABALHOFINAL\DEBUG\MYFORM1.OBJ
C:\USERS\FILOU\DOCUMENTS\VISUAL STUDIO 2015\PROJECTS\TRABALHOFINAL\TRABALHOFINAL\DEBUG\MYFORM2.OBJ
C:\USERS\FILOU\DOCUMENTS\VISUAL STUDIO 2015\PROJECTS\TRABALHOFINAL\TRABALHOFINAL\DEBUG\PESSOAS.OBJ
C:\USERS\FILOU\DOCUMENTS\VISUAL STUDIO 2015\PROJECTS\TRABALHOFINAL\TRABALHOFINAL\DEBUG\UNIVERSIDADE.OBJ
C:\USERS\FILOU\DOCUMENTS\VISUAL STUDIO 2015\PROJECTS\TRABALHOFINAL\TRABALHOFINAL\DEBUG\.NETFRAMEWORK,VERSION=V4.5.2.ASSEMBLYATTRIBUTES.OBJ
C:\PROGRAM FILES (X86)\MICROSOFT VISUAL STUDIO 14.0\VC\BIN\LINK.EXE
C:\WINDOWS\SYSTEM32\TZRES.DLL
C:\WINDOWS\MICROSOFT.NET\FRAMEWORK\V2.0.50727\MSCORWKS.DLL
C:\WINDOWS\MICROSOFT.NET\FRAMEWORK\V4.0.30319\CLR.DLL
C:\PROGRAM FILES (X86)\MICROSOFT VISUAL STUDIO 14.0\VC\BIN\LINK.EXE.CONFIG
C:\PROGRAM FILES (X86)\MICROSOFT VISUAL STUDIO 14.0\VC\LIB\MSVCPRTD.LIB
C:\PROGRAM FILES (X86)\MICROSOFT VISUAL STUDIO 14.0\VC\LIB\MSVCRTD.LIB
C:\PROGRAM FILES (X86)\MICROSOFT VISUAL STUDIO 14.0\VC\LIB\OLDNAMES.LIB
C:\PROGRAM FILES (X86)\MICROSOFT VISUAL STUDIO 14.0\VC\LIB\MSVCMRTD.LIB
C:\PROGRAM FILES (X86)\WINDOWS KITS\8.1\LIB\WINV6.3\UM\X86\MSCOREE.LIB
C:\PROGRAM FILES (X86)\WINDOWS KITS\8.1\LIB\WINV6.3\UM\X86\UUID.LIB
C:\PROGRAM FILES (X86)\MICROSOFT VISUAL STUDIO 14.0\VC\LIB\COMSUPP.LIB
C:\PROGRAM FILES (X86)\WINDOWS KITS\8.1\LIB\WINV6.3\UM\X86\OLEAUT32.LIB
C:\PROGRAM FILES (X86)\WINDOWS KITS\8.1\LIB\WINV6.3\UM\X86\KERNEL32.LIB
C:\PROGRAM FILES (X86)\WINDOWS KITS\10\LIB\10.0.10240.0\UCRT\X86\UCRTD.LIB
C:\PROGRAM FILES (X86)\MICROSOFT VISUAL STUDIO 14.0\VC\LIB\VCRUNTIMED.LIB
C:\PROGRAM FILES (X86)\WINDOWS KITS\8.1\BIN\X86\RC.EXE
C:\PROGRAM FILES (X86)\MICROSOFT VISUAL STUDIO 14.0\VC\BIN\CVTRES.EXE
C:\PROGRAM FILES (X86)\MICROSOFT VISUAL STUDIO 14.0\VC\BIN\MSPDBSRV.EXE
C:\USERS\FILOU\DOCUMENTS\VISUAL STUDIO 2015\PROJECTS\TRABALHOFINAL\TRABALHOFINAL\DEBUG\TRABALHOFINAL.ABOUT.RESOURCES
C:\USERS\FILOU\DOCUMENTS\VISUAL STUDIO 2015\PROJECTS\TRABALHOFINAL\TRABALHOFINAL\DEBUG\TRABALHOFINAL.ADICIONARALUNO.RESOURCES
C:\USERS\FILOU\DOCUMENTS\VISUAL STUDIO 2015\PROJECTS\TRABALHOFINAL\TRABALHOFINAL\DEBUG\TRABALHOFINAL.ADICIONARCURSOS.RESOURCES
C:\USERS\FILOU\DOCUMENTS\VISUAL STUDIO 2015\PROJECTS\TRABALHOFINAL\TRABALHOFINAL\DEBUG\TRABALHOFINAL.ADICIONARDEPARTAMENTO.RESOURCES
C:\USERS\FILOU\DOCUMENTS\VISUAL STUDIO 2015\PROJECTS\TRABALHOFINAL\TRABALHOFINAL\DEBUG\TRABALHOFINAL.ADICIONARDISCIPLINA.RESOURCES
C:\USERS\FILOU\DOCUMENTS\VISUAL STUDIO 2015\PROJECTS\TRABALHOFINAL\TRABALHOFINAL\DEBUG\TRABALHOFINAL.ADICIONARDOCENTE.RESOURCES
C:\USERS\FILOU\DOCUMENTS\VISUAL STUDIO 2015\PROJECTS\TRABALHOFINAL\TRABALHOFINAL\DEBUG\TRABALHOFINAL.ADICIONARESCOLA.RESOURCES
C:\USERS\FILOU\DOCUMENTS\VISUAL STUDIO 2015\PROJECTS\TRABALHOFINAL\TRABALHOFINAL\DEBUG\TRABALHOFINAL.ADICIONARUNIVERSIDADE.RESOURCES
C:\USERS\FILOU\DOCUMENTS\VISUAL STUDIO 2015\PROJECTS\TRABALHOFINAL\TRABALHOFINAL\DEBUG\TRABALHOFINAL.APAGARALUNOS.RESOURCES
C:\USERS\FILOU\DOCUMENTS\VISUAL STUDIO 2015\PROJECTS\TRABALHOFINAL\TRABALHOFINAL\DEBUG\TRABALHOFINAL.APAGARUNIVERSIDADE.RESOURCES
C:\USERS\FILOU\DOCUMENTS\VISUAL STUDIO 2015\PROJECTS\TRABALHOFINAL\TRABALHOFINAL\DEBUG\TRABALHOFINAL.FRMAUXILIAR.RESOURCES
C:\USERS\FILOU\DOCUMENTS\VISUAL STUDIO 2015\PROJECTS\TRABALHOFINAL\TRABALHOFINAL\DEBUG\TRABALHOFINAL.LISTARALUNOS.RESOURCES
C:\USERS\FILOU\DOCUMENTS\VISUAL STUDIO 2015\PROJECTS\TRABALHOFINAL\TRABALHOFINAL\DEBUG\TRABALHOFINAL.LISTARCURSOS.RESOURCES
C:\USERS\FILOU\DOCUMENTS\VISUAL STUDIO 2015\PROJECTS\TRABALHOFINAL\TRABALHOFINAL\DEBUG\TRABALHOFINAL.LISTARDEPARTAMENTO.RESOURCES
C:\USERS\FILOU\DOCUMENTS\VISUAL STUDIO 2015\PROJECTS\TRABALHOFINAL\TRABALHOFINAL\DEBUG\TRABALHOFINAL.LISTARDISCIPLINA.RESOURCES
C:\USERS\FILOU\DOCUMENTS\VISUAL STUDIO 2015\PROJECTS\TRABALHOFINAL\TRABALHOFINAL\DEBUG\TRABALHOFINAL.LISTARESCOLAS.RESOURCES
C:\USERS\FILOU\DOCUMENTS\VISUAL STUDIO 2015\PROJECTS\TRABALHOFINAL\TRABALHOFINAL\DEBUG\TRABALHOFINAL.LISTARUNIVERSIDADES.RESOURCES
C:\USERS\FILOU\DOCUMENTS\VISUAL STUDIO 2015\PROJECTS\TRABALHOFINAL\TRABALHOFINAL\DEBUG\TRABALHOFINAL.MANUTENCAO.RESOURCES
C:\USERS\FILOU\DOCUMENTS\VISUAL STUDIO 2015\PROJECTS\TRABALHOFINAL\TRABALHOFINAL\DEBUG\TRABALHOFINAL.MYFORM.RESOURCES
